%YAML 1.1
%TAG !u! tag:unity3d.com,2011:
--- !u!114 &11400000
MonoBehaviour:
  m_ObjectHideFlags: 0
  m_CorrespondingSourceObject: {fileID: 0}
  m_PrefabInstance: {fileID: 0}
  m_PrefabAsset: {fileID: 0}
  m_GameObject: {fileID: 0}
  m_Enabled: 1
  m_EditorHideFlags: 0
  m_Script: {fileID: 11500000, guid: 59e19e0051741734e8ccf9b909b0948c, type: 3}
  m_Name: SceneData_Proto_01
  m_EditorClassIdentifier: 
  SceneAssetReference:
    m_AssetGUID: 9fc0d4010bbf28b4594072e72b8655ab
    m_SubObjectName: 
    m_SubObjectType: 
