%YAML 1.1
%TAG !u! tag:unity3d.com,2011:
--- !u!114 &11400000
MonoBehaviour:
  m_ObjectHideFlags: 0
  m_CorrespondingSourceObject: {fileID: 0}
  m_PrefabInstance: {fileID: 0}
  m_PrefabAsset: {fileID: 0}
  m_GameObject: {fileID: 0}
  m_Enabled: 1
  m_EditorHideFlags: 0
  m_Script: {fileID: 11500000, guid: 8801f77a799227345858bff8791dc675, type: 3}
  m_Name: Tile Collection
  m_EditorClassIdentifier: 
  TilePrefabs:
  - {fileID: 6094954751377142681, guid: f32c7b763b4dcaf4285e540803105faf, type: 3}
  - {fileID: 6094954751377142681, guid: 10c5bd1a7e8ff964f9b8f4f86a4dae93, type: 3}
  - {fileID: 6094954751377142681, guid: a8a46b8e0f6fc4840adda75d7e0336b4, type: 3}
