%YAML 1.1
%TAG !u! tag:unity3d.com,2011:
--- !u!114 &11400000
MonoBehaviour:
  m_ObjectHideFlags: 0
  m_CorrespondingSourceObject: {fileID: 0}
  m_PrefabInstance: {fileID: 0}
  m_PrefabAsset: {fileID: 0}
  m_GameObject: {fileID: 0}
  m_Enabled: 1
  m_EditorHideFlags: 0
  m_Script: {fileID: 11500000, guid: 552ef70cd19c9e04a96da88ac0c4ed6b, type: 3}
  m_Name: VisionParams_Player
  m_EditorClassIdentifier: 
  VisionDistance: 14
  VisionDistance_Deadzone: 2.8
  VisionAngle: 80
  DrawDebugLines: 0
  DebugDrawAliveDuration: 5
