%YAML 1.1
%TAG !u! tag:unity3d.com,2011:
--- !u!114 &11400000
MonoBehaviour:
  m_ObjectHideFlags: 0
  m_CorrespondingSourceObject: {fileID: 0}
  m_PrefabInstance: {fileID: 0}
  m_PrefabAsset: {fileID: 0}
  m_GameObject: {fileID: 0}
  m_Enabled: 1
  m_EditorHideFlags: 0
  m_Script: {fileID: 11500000, guid: bbb281ee3bf0b054c82ac2347e9e782c, type: 3}
  m_Name: Built In Data
  m_EditorClassIdentifier: 
  m_GroupName: Built In Data
  m_Data:
    m_SerializedData: []
  m_GUID: aa679a93c6c1247499259d55d028f056
  m_SerializeEntries:
  - m_GUID: Resources
    m_Address: Resources
    m_ReadOnly: 1
    m_SerializedLabels: []
    m_MainAsset: {fileID: 0}
    m_TargetAsset: {fileID: 0}
  - m_GUID: EditorSceneList
    m_Address: EditorSceneList
    m_ReadOnly: 1
    m_SerializedLabels: []
    m_MainAsset: {fileID: 0}
    m_TargetAsset: {fileID: 0}
  m_ReadOnly: 1
  m_Settings: {fileID: 11400000, guid: a1f1e7779b215834eaad3227a5ff0854, type: 2}
  m_SchemaSet:
    m_Schemas:
    - {fileID: 11400000, guid: 4342204a002036347a753a75573898db, type: 2}
