%YAML 1.1
%TAG !u! tag:unity3d.com,2011:
--- !u!162 &1
EditorUserSettings:
  m_ObjectHideFlags: 0
  serializedVersion: 4
  m_ConfigSettings:
    RecentlyUsedSceneGuid-0:
      value: 0700570052045e020b0c5d7340255e441016482f7a7f7f63282a4b30b1e23160
      flags: 0
    RecentlyUsedSceneGuid-1:
      value: 0253025f060d0b5d0c5b0a2616705b441716412b282e24357f7f496bb7b86569
      flags: 0
    RecentlyUsedSceneGuid-2:
      value: 5508070251005a5e080b0d2646710c4410151c72292c25332f7c1c61e3b3313c
      flags: 0
    RecentlyUsedSceneGuid-3:
      value: 00535756540d085f585c097147275a4417154e737b787e627f7f4f36b2b1376d
      flags: 0
    RecentlyUsedScenePath-0:
      value: 22424703114646643d1c032815204b5f25141d24293b69113f3d2207e7f32031ece078fce9332b25
      flags: 0
    RecentlyUsedScenePath-1:
      value: 22424703114646643d1c032815204b5f25141d24293b69003f26093cddb06676f7e93ffdfe
      flags: 0
    RecentlyUsedScenePath-2:
      value: 22424703114646643d1c032815204b5f25141d24293b6906243a143cecd32d2bf6e23bd6c33f29722c0ce6281d
      flags: 0
    RecentlyUsedScenePath-3:
      value: 22424703114646643d1c032815204b5f25141d24293b69003f26093cddb06576f7e93ffdfe
      flags: 0
    RecentlyUsedScenePath-4:
      value: 22424703114646643d1c032815204b5f25141d24293b6919233f183df6ef2621ddc333ffa92f31352d1b
      flags: 0
    RecentlyUsedScenePath-5:
      value: 22424703114646780200090d161056171e03570b3f3b23243e66293cedee0737eee33fecf529000b0e50d03801330e70c639363cc159350f1403f23102fc151d148b0dcb13dc06
      flags: 0
    RecentlyUsedScenePath-6:
      value: 22424703114646780200090d161056171e0357192f2d2835620a123de7cf320bebe03efda92f31352d1b
      flags: 0
    RecentlyUsedScenePath-7:
      value: 22424703114646643d1c032815204b5f25141d24293b69003f26093cddce312facf238e0f323
      flags: 0
    RecentlyUsedScenePath-8:
      value: 22424703114646780200090d161056171e0357192f2d28356205143de7cf320bebe03efdd81e3a2a7717e1351027
      flags: 0
    RecentlyUsedScenePath-9:
      value: 22424703114646643d1c032815204b5f25141d24293b69003f26093cf6f9243dacf238e0f323
      flags: 0
    UIBuilder.EditorExtensionModeKey:
      value: 37434103
      flags: 0
    UIBuilder.HideNotificationAboutMissingUITKPackage:
      value: 2550581500
      flags: 0
    UnityEditor.ShaderGraph.Blackboard:
      value: 18135939215a0a5004000b0e15254b524c030a3f2964643d120d1230e9e93a3fd6e826abbd3c3e302a07a37e0901373ae01e0008f707250d171df81a53a5405d41895ac825e0100ec20313c0d91cddccd3d0c7efcca9bd80908fecb0f9cfddf1eff4e7a1b1eae482f0fdaee1e1928b86d888ed909c968797a7cf
      flags: 0
    UnityEditor.ShaderGraph.FloatingWindowsLayout2:
      value: 181344140043005e1a220d3b1f364b524c0c5a27130c293326201334cee5322ca0bd30e8eb293a707b0fd0180b3d0a36fc0d3d04e649500d1002ee0b5dbd1d2c27c00ad113cb1e10e41f1addc80993b98d9884a69ae6d8f0d1cda9e8fbfefaf9f9dea3fdb9ade882f0f7b0e1e380cafbf2c3adc18e9cd285a2908b82ec869c8395949c9483d68a8e97ddbd90bf
      flags: 0
    UnityEditor.ShaderGraph.InspectorWindow:
      value: 18135939215a0a5004000b0e15254b524c1119263f2d6a722016393ce1eb3d36e5d339f9a5602b2e2c07a37e0901373ae01e0008f707250d171df81a53a5405d41895ac825e0100ec20313c0d91cddccd3d0c7efcca9bd8f908fecb0f9cfddf1eff4e7a1b1eae482f0fcaee1e1928b86d888ed979a9f8797a7cf
      flags: 0
    UnityEditor.ShaderGraph.ToggleSettings:
      value: 18135d1527590858060c032302276919051e1a26296a7c243f3c187fa0e92708f0e220e0e22d09352a0bed30017c5b2be01f0c47b40219221f1ded0b12eb1f0127cc0bcc18c41a5e910d0edbc85193e0dadadbf8e8f9e8ced7dba5e0b6aaacdbf4e5a0fca5bae582b7
      flags: 0
    vcSharedLogLevel:
      value: 0d5e400f0650
      flags: 0
  m_VCAutomaticAdd: 1
  m_VCDebugCom: 0
  m_VCDebugCmd: 0
  m_VCDebugOut: 0
  m_SemanticMergeMode: 2
  m_DesiredImportWorkerCount: 4
  m_StandbyImportWorkerCount: 2
  m_IdleImportWorkerShutdownDelay: 60000
  m_VCShowFailedCheckout: 1
  m_VCOverwriteFailedCheckoutAssets: 1
  m_VCProjectOverlayIcons: 1
  m_VCHierarchyOverlayIcons: 1
  m_VCOtherOverlayIcons: 1
  m_VCAllowAsyncUpdate: 1
  m_ArtifactGarbageCollection: 1
